C:\work\codes\SpringBootEx\devopsleo\src\main\java\com\in28minutes\springboot\rest\example\SpringBoot2RestServiceApplication.java
C:\work\codes\SpringBootEx\devopsleo\src\main\java\com\in28minutes\springboot\rest\example\student\Student.java
C:\work\codes\SpringBootEx\devopsleo\src\main\java\com\in28minutes\springboot\rest\example\student\StudentResource.java
C:\work\codes\SpringBootEx\devopsleo\src\main\java\com\in28minutes\springboot\rest\example\student\StudentNotFoundException.java
C:\work\codes\SpringBootEx\devopsleo\src\main\java\com\in28minutes\springboot\rest\example\student\StudentRepository.java
